<svg width="150" height="80" viewBox="0 0 150 80" fill="none" xmlns="http://www.w3.org/2000/svg">
<g clip-path="url(#clip0_1_31043)">
<path fill-rule="evenodd" clip-rule="evenodd" d="M111.882 52.7363H129.808C131.735 52.7363 131.708 55.102 130.145 55.749C129.418 56.0498 128.772 56.2625 128.033 56.5203L115.715 60.8872C110.237 62.7703 109.964 68.6406 112.32 71.2324C113.291 72.3005 114.695 73.111 116.209 73.111H135.783V68.1717H118.476C117.249 68.1717 116.003 67.9285 116.003 66.731C116.003 65.0122 118.832 64.4423 121.128 63.6181C123.145 62.8939 125.332 62.178 127.335 61.3801C128.28 61.0042 129.323 60.6264 130.347 60.2718C131.353 59.9233 132.638 59.5497 133.432 59.0312C138.279 55.8638 137.365 47.5912 130.014 47.5912H111.882V52.7363H111.882Z" fill="black"/>
<path fill-rule="evenodd" clip-rule="evenodd" d="M14.8351 51.9131V73.111H20.1923V53.3537C20.1923 52.8795 20.3356 52.7363 20.8105 52.7363H30.0824C32.3988 52.7363 34.4307 53.5025 35.5975 55.0481C36.3744 56.0768 36.6757 57.5182 36.6757 58.9104V73.111H42.0328V58.9104C42.0328 51.4613 37.082 47.5912 29.8762 47.5912H18.1317C15.5667 47.5912 14.835 49.3529 14.835 51.9131H14.8351Z" fill="black"/>
<path fill-rule="evenodd" clip-rule="evenodd" d="M52.5414 47.5917H49.0386V52.7367H52.5414V65.4966C52.5414 74.3724 58.9256 73.1114 64.698 73.1114V68.3779C61.3875 68.3779 57.8985 69.0026 57.8985 65.4966V52.7367H64.9041V47.5917H57.8985V41.6234H52.5414V47.5917Z" fill="black"/>
<path fill-rule="evenodd" clip-rule="evenodd" d="M76.6485 76.1983C76.6485 78.2076 76.3692 79.0797 77.2668 79.0797H99.3134C100.211 79.0797 99.9315 78.2076 99.9315 76.1983C99.9315 75.7241 99.7881 75.581 99.3134 75.581H77.2668C76.792 75.581 76.6485 75.7241 76.6485 76.1983Z" fill="black"/>
<path fill-rule="evenodd" clip-rule="evenodd" d="M144.643 48.2086V73.111H150V47.5912H145.261C144.786 47.5912 144.643 47.7345 144.643 48.2087V48.2086Z" fill="black"/>
<path fill-rule="evenodd" clip-rule="evenodd" d="M144.643 38.5362V44.093H150V38.5362C150 37.491 148.107 37.9187 145.261 37.9187C144.786 37.9187 144.643 38.0619 144.643 38.5362Z" fill="url(#paint0_linear_1_31043)"/>
<path fill-rule="evenodd" clip-rule="evenodd" d="M0 48.2086V73.111H5.35714V47.5912H0.618217C0.143464 47.5912 0 47.7345 0 48.2087L0 48.2086Z" fill="black"/>
<path fill-rule="evenodd" clip-rule="evenodd" d="M0 36.4017V48.4976H5.35714V36.4017C5.35714 34.1265 3.46466 35.0577 0.618217 35.0577C0.143464 35.0577 0 35.3693 0 36.4017H0Z" fill="black"/>
<path fill-rule="evenodd" clip-rule="evenodd" d="M96.0163 34.0081C96.0163 36.0177 99.1987 35.4488 101.991 35.4488L103.046 38.1C103.828 40.0887 104.499 39.7264 108.173 40.5938C109.551 40.9193 112.5 42.0526 112.5 39.9763C112.5 38.446 107.64 38.2717 105.983 37.6359C105.111 37.3014 104.765 35.9926 104.289 34.8004C103.311 32.3513 102.25 32.9789 97.0463 32.9789C96.5659 32.9789 96.0161 33.5281 96.0161 34.0079L96.0163 34.0081Z" fill="url(#paint1_linear_1_31043)"/>
<path fill-rule="evenodd" clip-rule="evenodd" d="M80.1507 61.9971C80.1507 57.5004 79.364 52.7333 82.6151 50.2583C88.0699 46.1056 96.4281 49.366 96.4281 55.2057C96.4281 60.2507 97.2528 64.2718 93.933 66.9139C90.6535 69.5239 85.8392 69.3493 82.7343 67.0312C81.5084 66.1159 80.1506 64.0446 80.1506 61.9971H80.1507ZM75.2057 55.2055C75.2057 59.1393 74.7066 63.2003 76.4365 66.7359C76.8028 67.4845 77.0319 67.8291 77.5586 68.4964C81.5526 73.5559 88.4666 74.7063 93.6665 72.6158C97.6013 71.0339 101.373 66.8107 101.373 61.997C101.373 54.8174 102.223 51.8906 97.5108 47.1266C93.9893 43.5666 87.4076 42.7793 82.9123 44.5866C81.2888 45.2392 80.3313 46.0343 79.1156 46.9684C77.1166 48.5043 75.2056 52.2939 75.2056 55.2054L75.2057 55.2055Z" fill="url(#paint2_linear_1_31043)"/>
<path fill-rule="evenodd" clip-rule="evenodd" d="M87.7747 29.8921C91.4916 29.8921 92.5027 36.4439 89.438 38.5519C86.7623 40.3923 83.7961 36.9322 84.7277 33.0239C85.0357 31.732 86.1727 29.8921 87.7747 29.8921ZM80.5632 34.4197C80.5632 38.6688 83.6098 42.8577 87.5688 42.8577C94.8672 42.8577 97.3389 33.7872 93.1648 28.6244C88.6882 23.0873 80.5632 27.0118 80.5632 34.4197Z" fill="url(#paint3_linear_1_31043)"/>
<path fill-rule="evenodd" clip-rule="evenodd" d="M83.6534 18.9845C83.6534 14.7639 92.5132 14.8979 92.5132 18.9845C92.5132 22.9697 83.6534 22.65 83.6534 18.9845ZM79.7387 18.367C79.7387 20.7835 80.4588 22.5356 82.4111 23.9298C88.2692 28.1131 96.4281 24.51 96.4281 19.1903C96.4281 15.8291 94.2625 13.5642 91.6653 12.6284C88.5612 11.5097 84.8654 11.8156 82.3814 13.8038C81.2436 14.7146 79.7385 16.4073 79.7385 18.3671L79.7387 18.367Z" fill="url(#paint4_linear_1_31043)"/>
<path fill-rule="evenodd" clip-rule="evenodd" d="M72.3214 24.9529C72.3214 30.4694 72.3094 29.5482 77.9101 31.5191C78.977 31.8945 80.151 32.2839 80.151 30.5097C80.151 29.3378 75.9719 28.2663 74.9999 28.04L74.6906 24.4387C74.4158 23.2016 73.6049 22.8915 72.6693 22.3416C71.7386 21.7945 71.0016 21.3456 70.0938 20.798C69.2974 20.3178 68.3103 19.6136 67.3764 19.3962C64.8222 21.6137 67.4265 21.6789 72.3214 24.9529Z" fill="url(#paint5_linear_1_31043)"/>
<path fill-rule="evenodd" clip-rule="evenodd" d="M64.0795 41.211C64.0795 41.7668 64.1779 41.7785 64.2856 42.24C66.3651 42.7373 68.1561 41.6361 71.0638 40.7783C73.0421 40.1947 73.4493 39.1795 74.1755 36.0659C75.224 36.0659 76.3091 35.9352 77.4162 35.8042C79.2351 35.5887 79.9447 35.647 79.9447 34.2137C79.9447 32.5595 76.5917 33.5132 75.2056 33.5962C72.1458 33.7794 72.4654 33.7162 71.6278 36.1967C70.687 38.9828 71.0799 38.3708 66.0048 39.8414C65.1369 40.0929 64.0793 40.1996 64.0793 41.2111L64.0795 41.211Z" fill="url(#paint6_linear_1_31043)"/>
<path fill-rule="evenodd" clip-rule="evenodd" d="M95.6042 38.5356C95.6042 39.4332 97.0249 40.027 97.6528 40.3997C98.4857 40.8939 99.2409 41.3548 100.137 41.8285C100.137 45.2872 98.7345 45.7611 100.91 47.6419L103.965 50.3533C104.715 50.9335 104.937 51.7072 105.907 51.7072C106.403 51.7072 107.143 50.9679 107.143 50.4723C107.143 49.677 102.931 46.4207 102.198 45.3272C102.279 44.3492 102.518 43.1868 102.686 42.087C102.964 40.2677 101.761 40.0741 99.146 38.4968C98.2746 37.9712 95.6044 36.2309 95.6044 38.5356H95.6042Z" fill="url(#paint7_linear_1_31043)"/>
<path fill-rule="evenodd" clip-rule="evenodd" d="M100.549 27.422L96.8048 29.0328C96.0989 29.3142 95.4942 29.5375 95.506 30.2727C95.5486 32.9078 99.4333 30.4197 101.495 29.6012C103.259 28.9008 102.596 29.1038 102.816 28.6568L103.022 24.1291C104.052 23.5845 108.585 20.548 108.585 19.8072C108.585 19.11 108.317 18.5703 107.685 18.4366C106.903 18.2711 104.503 20.2589 103.391 20.9991C102.838 21.3667 102.627 21.5738 102.073 21.9465C101.527 22.3132 101.209 22.4212 100.874 23.0127C100.3 24.0267 100.549 25.9902 100.549 27.422H100.549Z" fill="url(#paint8_linear_1_31043)"/>
<path fill-rule="evenodd" clip-rule="evenodd" d="M74.5876 45.9446C74.5876 46.5289 73.5866 47.2568 73.1964 47.6421L70.2689 50.9152C70.07 51.3764 70.1983 52.5303 71.4969 52.5303C72.4027 52.5303 75.2369 48.8871 75.8724 48.2569C78.2547 45.894 76.4419 45.2921 76.4419 42.2402C76.9968 42.0921 77.191 41.898 77.623 41.5676C79.4125 40.1986 79.9272 40.3302 80.7689 38.7415C80.0259 37.3389 79.6781 37.1139 78.436 38.0577C75.8233 40.043 73.4587 40.7703 73.9096 42.6883C74.1146 43.5605 74.5876 45.0999 74.5876 45.9447V45.9446Z" fill="url(#paint9_linear_1_31043)"/>
<path fill-rule="evenodd" clip-rule="evenodd" d="M94.986 0.667899C95.0107 1.77279 95.6345 3.57786 95.9446 4.64985C96.3539 6.06475 96.7176 7.28389 97.0465 8.69434C95.947 10.3345 93.7498 11.5345 93.7498 13.0162C93.7498 13.5183 94.2276 14.0453 94.986 14.0453C95.7747 14.0453 98.3001 10.9037 99.0674 10.09C100.196 8.89365 99.0747 6.77397 98.2381 3.7997C98.0651 3.18487 97.8435 2.42704 97.6456 1.71618C97.0591 -0.39031 96.4165 -0.324811 94.986 0.668047V0.667899Z" fill="url(#paint10_linear_1_31043)"/>
<path fill-rule="evenodd" clip-rule="evenodd" d="M76.4423 9.1061C76.4423 9.77977 77.9879 11.3645 78.4543 11.8299C79.3105 12.6842 80.1148 14.2513 81.1814 14.2513C81.999 14.2513 82.2116 13.4508 82.2116 12.8107C82.2116 12.4338 81.0245 11.1038 80.7208 10.8009C79.7859 9.86838 79.5921 9.35328 78.9149 8.90042L81.1587 1.85394C81.4754 0.662216 80.7835 0.149042 80.1246 0.101326C78.8115 0.00633721 78.3714 2.3886 77.8845 4.16686C77.6499 5.02353 77.4029 5.61836 77.1473 6.51756C76.9524 7.20337 76.4421 8.58448 76.4421 9.1061H76.4423Z" fill="url(#paint11_linear_1_31043)"/>
<path fill-rule="evenodd" clip-rule="evenodd" d="M92.1015 8.28224C91.9047 8.57594 91.7478 8.83883 91.5103 9.13283C89.8148 11.2304 91.6573 11.7809 91.6895 11.7809C92.9513 11.7809 94.9863 8.86698 94.9863 7.87072C94.9863 7.43045 92.2738 4.42728 91.3076 4.48018C90.3203 4.53427 89.7846 5.51172 90.3069 6.3472C90.7629 7.07658 91.6023 7.5373 92.1017 8.28224H92.1015Z" fill="url(#paint12_linear_1_31043)"/>
<path fill-rule="evenodd" clip-rule="evenodd" d="M81.387 8.28212C81.387 8.70964 82.4261 9.8212 82.7393 10.2243C83.1091 10.7002 83.8324 11.7808 84.4776 11.7808C85.1615 11.7808 85.4682 11.0097 85.7139 10.546C85.4953 9.60929 84.7617 9.01313 84.2715 8.28212C85.1378 6.98992 87.1711 6.22438 85.8714 4.84283L85.3017 4.37189C84.0919 4.65344 83.7554 5.19196 82.9836 5.96668C82.3785 6.57411 81.387 7.21739 81.387 8.28212Z" fill="url(#paint13_linear_1_31043)"/>
</g>
<defs>
<linearGradient id="paint0_linear_1_31043" x1="144.457" y1="40.9007" x2="150" y2="40.9058" gradientUnits="userSpaceOnUse">
<stop stop-color="#AE5A00"/>
<stop offset="0.431373" stop-color="#CC6900"/>
<stop offset="1" stop-color="#EA7900"/>
</linearGradient>
<linearGradient id="paint1_linear_1_31043" x1="96.0161" y1="37.0512" x2="112.5" y2="37.0512" gradientUnits="userSpaceOnUse">
<stop stop-color="#AE5A00"/>
<stop offset="1" stop-color="#EA7900"/>
</linearGradient>
<linearGradient id="paint2_linear_1_31043" x1="75.1389" y1="58.6278" x2="101.433" y2="58.6278" gradientUnits="userSpaceOnUse">
<stop stop-color="#AE5A00"/>
<stop offset="1" stop-color="#EA7900"/>
</linearGradient>
<linearGradient id="paint3_linear_1_31043" x1="80.5632" y1="34.4381" x2="95.1914" y2="34.4381" gradientUnits="userSpaceOnUse">
<stop stop-color="#AE5A00"/>
<stop offset="1" stop-color="#EA7900"/>
</linearGradient>
<linearGradient id="paint4_linear_1_31043" x1="79.7385" y1="18.8706" x2="96.4281" y2="18.8706" gradientUnits="userSpaceOnUse">
<stop stop-color="#AE5A00"/>
<stop offset="1" stop-color="#EA7900"/>
</linearGradient>
<linearGradient id="paint5_linear_1_31043" x1="66.3792" y1="25.6172" x2="80.151" y2="25.6172" gradientUnits="userSpaceOnUse">
<stop stop-color="#AE5A00"/>
<stop offset="1" stop-color="#EA7900"/>
</linearGradient>
<linearGradient id="paint6_linear_1_31043" x1="64.0793" y1="37.8059" x2="79.9447" y2="37.8059" gradientUnits="userSpaceOnUse">
<stop stop-color="#AE5A00"/>
<stop offset="1" stop-color="#EA7900"/>
</linearGradient>
<linearGradient id="paint7_linear_1_31043" x1="95.6042" y1="44.5395" x2="107.143" y2="44.5395" gradientUnits="userSpaceOnUse">
<stop stop-color="#AE5A00"/>
<stop offset="1" stop-color="#EA7900"/>
</linearGradient>
<linearGradient id="paint8_linear_1_31043" x1="95.5059" y1="24.9393" x2="108.585" y2="24.9393" gradientUnits="userSpaceOnUse">
<stop stop-color="#AE5A00"/>
<stop offset="1" stop-color="#EA7900"/>
</linearGradient>
<linearGradient id="paint9_linear_1_31043" x1="70.1938" y1="45.0085" x2="80.7689" y2="45.0085" gradientUnits="userSpaceOnUse">
<stop stop-color="#AE5A00"/>
<stop offset="1" stop-color="#EA7900"/>
</linearGradient>
<linearGradient id="paint10_linear_1_31043" x1="93.7498" y1="7.02263" x2="99.544" y2="7.02263" gradientUnits="userSpaceOnUse">
<stop stop-color="#AE5A00"/>
<stop offset="1" stop-color="#EA7900"/>
</linearGradient>
<linearGradient id="paint11_linear_1_31043" x1="76.4421" y1="7.17495" x2="82.2116" y2="7.17495" gradientUnits="userSpaceOnUse">
<stop stop-color="#AE5A00"/>
<stop offset="1" stop-color="#EA7900"/>
</linearGradient>
<linearGradient id="paint12_linear_1_31043" x1="90.1033" y1="8.13022" x2="94.9863" y2="8.13022" gradientUnits="userSpaceOnUse">
<stop stop-color="#AE5A00"/>
<stop offset="1" stop-color="#EA7900"/>
</linearGradient>
<linearGradient id="paint13_linear_1_31043" x1="81.387" y1="8.07636" x2="86.294" y2="8.07636" gradientUnits="userSpaceOnUse">
<stop stop-color="#AE5A00"/>
<stop offset="1" stop-color="#EA7900"/>
</linearGradient>
<clipPath id="clip0_1_31043">
<rect width="150" height="79.0795" fill="white"/>
</clipPath>
</defs>
</svg>
